// Leaves genrated by blender2ogre 0.5.9

material Leaves 
{
    receive_shadows on 

    technique
    {
        pass Leaves
        {
            ambient 0.5070671439170837 0.500306248664856 0.500306248664856 1.0
            diffuse 0.4056537211783784 0.400245004896 0.400245004896 1.0
            specular 0.49000000953674316 0.47999998927116394 0.5 1.0 12.5
            emissive 0.0 0.0 0.0 1.0

            alpha_to_coverage off
            colour_write on
            cull_hardware clockwise
            depth_check on
            depth_func less_equal
            depth_write on
            illumination_stage 
            light_clip_planes off
            light_scissor off
            lighting on
            normalise_normals off
            polygon_mode solid
            scene_blend one zero
            scene_blend_op add
            shading gouraud
            transparent_sorting on

            texture_unit 
            {
                texture sapin_uv_2.png
                tex_address_mode wrap
                scale 1.0 1.0
                tex_coord_set 0
                colour_op modulate
            }
        }
    }
}
